<svg width="321" height="242" viewBox="0 0 321 242" fill="none" xmlns="http://www.w3.org/2000/svg">
<g id="Group 7">
<path id="Vector 2" d="M5 238.5L100 82H192L223.5 50.5H271L316.5 5" stroke="#335353" stroke-width="11"/>
<g id="Vector">
<path d="M271.5 4.80825e-07H320.5V11H271.5V4.80825e-07Z" fill="#335353"/>
<path d="M320.5 4.80825e-07L320.5 49H309.5L309.5 0L320.5 4.80825e-07Z" fill="#335353"/>
</g>
</g>
</svg>
