<svg width="1243" height="186" viewBox="0 0 1243 186" fill="none" xmlns="http://www.w3.org/2000/svg">
<g id="Vector">
<path d="M14.1921 24.56V116H0.0800781V15.2H24.7041L90.0801 106.64V15.2H104.048V116H79.2801L14.1921 24.56Z" fill="white"/>
<path d="M138.364 72.08V116H124.252V15.2H215.116V27.872H138.364V59.408H200.572V72.08H138.364Z" fill="white"/>
<path d="M436.444 169.328V182H340.252V81.2H431.692V93.872H354.364V121.088H417.148V133.76H354.364V169.328H436.444Z" fill="white"/>
<path d="M537.866 169.328V182H452.33V81.2H466.442V169.328H537.866Z" fill="white"/>
<path d="M648.506 169.328V182H552.314V81.2H643.754V93.872H566.426V121.088H629.21V133.76H566.426V169.328H648.506Z" fill="white"/>
<path d="M764.041 154.208C764.041 158.72 763.129 162.896 761.305 166.736C759.577 170.48 756.649 173.744 752.521 176.528C748.393 179.216 742.921 181.328 736.105 182.864C729.385 184.4 720.985 185.168 710.905 185.168C700.825 185.168 692.569 184.016 686.137 181.712C679.801 179.408 674.761 176.48 671.017 172.928C667.369 169.28 664.729 165.296 663.097 160.976C661.561 156.56 660.601 152.24 660.217 148.016H675.481C676.057 155.792 679.321 161.84 685.273 166.16C691.321 170.384 700.009 172.496 711.337 172.496C723.049 172.496 732.265 171.152 738.985 168.464C745.801 165.68 749.257 161.264 749.353 155.216C749.449 149.168 746.473 144.848 740.425 142.256C734.377 139.664 724.969 137.984 712.201 137.216C703.753 136.928 696.409 136.352 690.169 135.488C684.025 134.624 678.937 133.184 674.905 131.168C670.873 129.152 667.897 126.416 665.977 122.96C664.057 119.504 663.097 114.992 663.097 109.424C663.097 105.296 664.057 101.36 665.977 97.616C667.897 93.872 670.921 90.608 675.049 87.824C679.273 84.944 684.649 82.688 691.177 81.056C697.705 79.328 705.577 78.464 714.793 78.464C724.681 78.464 732.697 79.568 738.841 81.776C745.081 83.984 749.977 86.816 753.529 90.272C757.177 93.728 759.721 97.616 761.161 101.936C762.697 106.256 763.657 110.528 764.041 114.752H748.777C748.393 110.24 747.289 106.496 745.465 103.52C743.641 100.448 741.193 98 738.121 96.176C735.145 94.352 731.641 93.056 727.609 92.288C723.577 91.52 719.161 91.136 714.361 91.136C708.889 91.136 703.897 91.472 699.385 92.144C694.969 92.816 691.129 93.872 687.865 95.312C684.697 96.656 682.201 98.432 680.377 100.64C678.649 102.752 677.785 105.344 677.785 108.416C677.785 111.392 678.457 113.888 679.801 115.904C681.241 117.824 683.449 119.408 686.425 120.656C689.401 121.808 693.193 122.72 697.801 123.392C702.505 123.968 708.025 124.448 714.361 124.832C723.193 125.312 730.729 126.128 736.969 127.28C743.209 128.336 748.345 129.968 752.377 132.176C756.409 134.384 759.337 137.264 761.161 140.816C763.081 144.368 764.041 148.832 764.041 154.208Z" fill="white"/>
<path d="M887.846 149.888C885.062 161.984 878.918 170.912 869.414 176.672C859.91 182.336 847.718 185.168 832.838 185.168C823.814 185.168 815.75 183.968 808.646 181.568C801.542 179.168 795.542 175.76 790.646 171.344C785.75 166.832 782.006 161.36 779.414 154.928C776.822 148.496 775.526 141.248 775.526 133.184V130.592C775.526 122.24 776.822 114.8 779.414 108.272C782.006 101.744 785.75 96.272 790.646 91.856C795.542 87.344 801.542 83.936 808.646 81.632C815.75 79.232 823.814 78.032 832.838 78.032C840.518 78.032 847.478 78.8 853.718 80.336C860.054 81.872 865.526 84.224 870.134 87.392C874.838 90.464 878.678 94.352 881.654 99.056C884.63 103.76 886.598 109.28 887.558 115.616H872.006C871.046 111.872 869.414 108.464 867.11 105.392C864.902 102.224 862.118 99.536 858.758 97.328C855.494 95.024 851.654 93.296 847.238 92.144C842.918 90.896 838.118 90.272 832.838 90.272C825.83 90.272 819.686 91.328 814.406 93.44C809.126 95.456 804.71 98.288 801.158 101.936C797.606 105.584 794.918 110 793.094 115.184C791.366 120.272 790.502 125.888 790.502 132.032C790.502 137.888 791.366 143.312 793.094 148.304C794.918 153.296 797.606 157.616 801.158 161.264C804.71 164.912 809.126 167.792 814.406 169.904C819.686 171.92 825.83 172.928 832.838 172.928C843.494 172.928 852.278 170.912 859.19 166.88C866.198 162.752 870.662 157.088 872.582 149.888H887.846Z" fill="white"/>
<path d="M897.976 130.592C898.264 121.472 899.848 113.6 902.728 106.976C905.704 100.352 909.736 94.928 914.824 90.704C920.008 86.384 926.104 83.216 933.112 81.2C940.216 79.088 948.088 78.032 956.728 78.032C965.368 78.032 973.192 79.136 980.2 81.344C987.304 83.456 993.4 86.672 998.488 90.992C1003.67 95.312 1007.7 100.784 1010.58 107.408C1013.56 113.936 1015.19 121.664 1015.48 130.592V133.184C1015.19 142.112 1013.56 149.888 1010.58 156.512C1007.7 163.04 1003.67 168.416 998.488 172.64C993.4 176.864 987.304 179.984 980.2 182C973.192 184.112 965.368 185.168 956.728 185.168C948.088 185.168 940.216 184.112 933.112 182C926.104 179.984 920.008 176.864 914.824 172.64C909.736 168.32 905.704 162.896 902.728 156.368C899.848 149.84 898.264 142.112 897.976 133.184V130.592ZM956.728 90.704C950.104 90.704 944.056 91.568 938.584 93.296C933.208 95.024 928.6 97.616 924.76 101.072C921.016 104.432 918.088 108.704 915.976 113.888C913.96 118.976 912.952 124.976 912.952 131.888C912.952 138.512 913.96 144.368 915.976 149.456C918.088 154.448 921.016 158.672 924.76 162.128C928.6 165.488 933.208 168.08 938.584 169.904C944.056 171.632 950.104 172.496 956.728 172.496C963.352 172.496 969.352 171.632 974.728 169.904C980.2 168.176 984.808 165.632 988.552 162.272C992.392 158.816 995.32 154.592 997.336 149.6C999.448 144.512 1000.5 138.608 1000.5 131.888C1000.5 125.264 999.448 119.408 997.336 114.32C995.32 109.232 992.392 104.96 988.552 101.504C984.808 97.952 980.2 95.264 974.728 93.44C969.352 91.616 963.352 90.704 956.728 90.704Z" fill="white"/>
<path d="M1043.99 145.136V182H1029.88V81.2H1096.69C1101.97 81.2 1106.77 81.92 1111.09 83.36C1115.41 84.704 1119.06 86.768 1122.04 89.552C1125.11 92.24 1127.46 95.648 1129.09 99.776C1130.82 103.904 1131.68 108.704 1131.68 114.176C1131.49 119.456 1130.53 124.064 1128.8 128C1127.08 131.936 1124.68 135.152 1121.6 137.648C1118.63 140.144 1115.03 142.016 1110.8 143.264C1106.58 144.512 1101.88 145.136 1096.69 145.136H1043.99ZM1043.99 132.464H1096.12C1102.36 132.464 1107.35 130.832 1111.09 127.568C1114.84 124.304 1116.71 119.552 1116.71 113.312C1116.71 107.168 1114.84 102.416 1111.09 99.056C1107.35 95.6 1102.36 93.872 1096.12 93.872H1043.99V132.464Z" fill="white"/>
<path d="M1242.23 169.328V182H1146.03V81.2H1237.47V93.872H1160.15V121.088H1222.93V133.76H1160.15V169.328H1242.23Z" fill="white"/>
<path d="M298.564 40.9637L254.5 117.285L242.278 110.229L286.342 33.9077L247.558 11.5157L253.894 0.541382L343.808 52.4534L337.472 63.4277L298.564 40.9637Z" fill="white"/>
</g>
</svg>
