<svg width="20" height="20" viewBox="0 0 20 20" fill="none" xmlns="http://www.w3.org/2000/svg">
<path d="M14.1735 17.4958L5.84019 17.5038C4.00686 17.5054 2.50561 16.0071 2.50352 14.1738L2.49561 5.84043C2.49394 4.0071 3.99227 2.50585 5.82561 2.50377L14.1589 2.49585C15.9923 2.49418 17.4935 3.99252 17.4956 5.82585L17.5035 14.1592C17.5056 15.9929 16.0069 17.4942 14.1735 17.4958Z" fill="url(#paint0_radial_65_107)"/>
<path d="M14.1735 17.4958L5.84019 17.5038C4.00686 17.5054 2.50561 16.0071 2.50352 14.1738L2.49561 5.84043C2.49394 4.0071 3.99227 2.50585 5.82561 2.50377L14.1589 2.49585C15.9923 2.49418 17.4935 3.99252 17.4956 5.82585L17.5035 14.1592C17.5056 15.9929 16.0069 17.4942 14.1735 17.4958Z" fill="url(#paint1_radial_65_107)"/>
<path d="M10.0002 12.9167C8.39225 12.9167 7.0835 11.6084 7.0835 10C7.0835 8.39171 8.39225 7.08337 10.0002 7.08337C11.6081 7.08337 12.9168 8.39171 12.9168 10C12.9168 11.6084 11.6081 12.9167 10.0002 12.9167ZM10.0002 7.91671C8.85141 7.91671 7.91683 8.85129 7.91683 10C7.91683 11.1488 8.85141 12.0834 10.0002 12.0834C11.1489 12.0834 12.0835 11.1488 12.0835 10C12.0835 8.85129 11.1489 7.91671 10.0002 7.91671Z" fill="#323639"/>
<path d="M13.125 7.5C13.4702 7.5 13.75 7.22018 13.75 6.875C13.75 6.52982 13.4702 6.25 13.125 6.25C12.7798 6.25 12.5 6.52982 12.5 6.875C12.5 7.22018 12.7798 7.5 13.125 7.5Z" fill="#323639"/>
<path d="M12.5002 15.4167H7.50016C5.89225 15.4167 4.5835 14.1084 4.5835 12.5V7.50004C4.5835 5.89171 5.89225 4.58337 7.50016 4.58337H12.5002C14.1081 4.58337 15.4168 5.89171 15.4168 7.50004V12.5C15.4168 14.1084 14.1081 15.4167 12.5002 15.4167ZM7.50016 5.41671C6.35141 5.41671 5.41683 6.35129 5.41683 7.50004V12.5C5.41683 13.6488 6.35141 14.5834 7.50016 14.5834H12.5002C13.6489 14.5834 14.5835 13.6488 14.5835 12.5V7.50004C14.5835 6.35129 13.6489 5.41671 12.5002 5.41671H7.50016Z" fill="#323639"/>
<defs>
<radialGradient id="paint0_radial_65_107" cx="0" cy="0" r="1" gradientUnits="userSpaceOnUse" gradientTransform="translate(8.07477 17.5146) scale(18.7079)">
<stop stop-color="#FFDD55"/>
<stop offset="0.328" stop-color="#FF543F"/>
<stop offset="0.348" stop-color="#FC5245"/>
<stop offset="0.504" stop-color="#E64771"/>
<stop offset="0.643" stop-color="#D53E91"/>
<stop offset="0.761" stop-color="#CC39A4"/>
<stop offset="0.841" stop-color="#C837AB"/>
</radialGradient>
<radialGradient id="paint1_radial_65_107" cx="0" cy="0" r="1" gradientUnits="userSpaceOnUse" gradientTransform="translate(4.91061 2.30848) scale(12.4221 8.27683)">
<stop stop-color="#4168C9"/>
<stop offset="0.999" stop-color="#4168C9" stop-opacity="0"/>
</radialGradient>
</defs>
</svg>
