<svg width="11" height="11" viewBox="0 0 11 11" fill="none" xmlns="http://www.w3.org/2000/svg">
<path d="M5.5 0L6.69314 1.43655L8.47352 0.873106L8.7006 2.72666L10.503 3.21522L9.69189 4.8973L10.944 6.28273L9.35229 7.25928L9.65662 9.10173L7.78961 9.06271L7.04953 10.7772L5.5 9.735L3.95047 10.7772L3.21039 9.06271L1.34338 9.10173L1.64771 7.25928L0.0559821 6.28273L1.30811 4.8973L0.497024 3.21522L2.2994 2.72666L2.52648 0.873106L4.30686 1.43655L5.5 0Z" fill="#1D79E6"/>
<g width="5" height="4" transform="translate(2.75 2.75)">
	<path  d="M0.592946 2.40724L2.43305 4.24734L1.88102 4.79937L0.0409154 2.95927L0.592946 2.40724Z" fill="white"/>
	<path d="M5.37721 1.30318L2.06503 4.61536L1.513 4.06333L4.82518 0.751145L5.37721 1.30318Z" fill="white"/>
</g>
</svg>
